TBMultiplierController.vcd
$date
  Tue Jun 04 10:18:09 2024
$end
$version
  GHDL v0
$end
$timescale
  1 fs
$end
$var reg 8 ! s_operand0[7:0] $end
$var reg 8 " s_operand1[7:0] $end
$var reg 1 # s_multiply $end
$var reg 1 $ s_clk $end
$var reg 16 % s_product[15:0] $end
$var reg 1 & s_done $end
$scope module uut $end
$var reg 8 ' operand0[7:0] $end
$var reg 8 ( operand1[7:0] $end
$var reg 1 ) multiply $end
$var reg 1 * clk $end
$var reg 16 + product[15:0] $end
$var reg 1 , done $end
$var reg 1 - sload $end
$var reg 1 . scompute $end
$var reg 16 / sa[15:0] $end
$var reg 1 0 sb $end
$var reg 1 1 srst $end
$var reg 16 2 sshifted[15:0] $end
$var reg 16 3 sshiftedbuf[15:0] $end
$var reg 16 4 ssum[15:0] $end
$var reg 1 5 sselmux1 $end
$var reg 16 6 sfulladdera[15:0] $end
$var reg 16 7 sfulladderbuf[15:0] $end
$comment state is not handled $end
$scope module shiftregister $end
$var reg 8 8 data[7:0] $end
$var reg 1 9 load $end
$var reg 1 : compute $end
$var reg 1 ; clk $end
$var reg 16 < q[15:0] $end
$var reg 16 = sreg16[15:0] $end
$upscope $end
$scope module serializer $end
$var reg 8 > data[7:0] $end
$var reg 1 ? load $end
$var reg 1 @ compute $end
$var reg 1 A clk $end
$var reg 1 B q $end
$var reg 8 C sreg8[7:0] $end
$upscope $end
$scope module mux0 $end
$var reg 16 D in0[15:0] $end
$var reg 16 E in1[15:0] $end
$var reg 1 F sel $end
$var reg 16 G q[15:0] $end
$upscope $end
$scope module mux1 $end
$var reg 16 H in0[15:0] $end
$var reg 16 I in1[15:0] $end
$var reg 1 J sel $end
$var reg 16 K q[15:0] $end
$upscope $end
$scope module fa $end
$var reg 16 L operand0[15:0] $end
$var reg 16 M operand1[15:0] $end
$var reg 1 N carryin $end
$var reg 16 O sum[15:0] $end
$var reg 1 P carryout $end
$var reg 17 Q scarries[16:0] $end
$scope module genfulladder(0) $end
$scope module fainstance $end
$var reg 1 R operand0 $end
$var reg 1 S operand1 $end
$var reg 1 T carryin $end
$var reg 1 U sum $end
$var reg 1 V carryout $end
$var reg 1 W ssum0 $end
$var reg 1 X scarry0 $end
$var reg 1 Y scarry1 $end
$scope module halfadder0 $end
$var reg 1 Z operand0 $end
$var reg 1 [ operand1 $end
$var reg 1 \ sum $end
$var reg 1 ] carry $end
$upscope $end
$scope module halfadder1 $end
$var reg 1 ^ operand0 $end
$var reg 1 _ operand1 $end
$var reg 1 ` sum $end
$var reg 1 a carry $end
$upscope $end
$upscope $end
$upscope $end
$scope module genfulladder(1) $end
$scope module fainstance $end
$var reg 1 b operand0 $end
$var reg 1 c operand1 $end
$var reg 1 d carryin $end
$var reg 1 e sum $end
$var reg 1 f carryout $end
$var reg 1 g ssum0 $end
$var reg 1 h scarry0 $end
$var reg 1 i scarry1 $end
$scope module halfadder0 $end
$var reg 1 j operand0 $end
$var reg 1 k operand1 $end
$var reg 1 l sum $end
$var reg 1 m carry $end
$upscope $end
$scope module halfadder1 $end
$var reg 1 n operand0 $end
$var reg 1 o operand1 $end
$var reg 1 p sum $end
$var reg 1 q carry $end
$upscope $end
$upscope $end
$upscope $end
$scope module genfulladder(2) $end
$scope module fainstance $end
$var reg 1 r operand0 $end
$var reg 1 s operand1 $end
$var reg 1 t carryin $end
$var reg 1 u sum $end
$var reg 1 v carryout $end
$var reg 1 w ssum0 $end
$var reg 1 x scarry0 $end
$var reg 1 y scarry1 $end
$scope module halfadder0 $end
$var reg 1 z operand0 $end
$var reg 1 { operand1 $end
$var reg 1 | sum $end
$var reg 1 } carry $end
$upscope $end
$scope module halfadder1 $end
$var reg 1 !" operand0 $end
$var reg 1 "" operand1 $end
$var reg 1 #" sum $end
$var reg 1 $" carry $end
$upscope $end
$upscope $end
$upscope $end
$scope module genfulladder(3) $end
$scope module fainstance $end
$var reg 1 %" operand0 $end
$var reg 1 &" operand1 $end
$var reg 1 '" carryin $end
$var reg 1 (" sum $end
$var reg 1 )" carryout $end
$var reg 1 *" ssum0 $end
$var reg 1 +" scarry0 $end
$var reg 1 ," scarry1 $end
$scope module halfadder0 $end
$var reg 1 -" operand0 $end
$var reg 1 ." operand1 $end
$var reg 1 /" sum $end
$var reg 1 0" carry $end
$upscope $end
$scope module halfadder1 $end
$var reg 1 1" operand0 $end
$var reg 1 2" operand1 $end
$var reg 1 3" sum $end
$var reg 1 4" carry $end
$upscope $end
$upscope $end
$upscope $end
$scope module genfulladder(4) $end
$scope module fainstance $end
$var reg 1 5" operand0 $end
$var reg 1 6" operand1 $end
$var reg 1 7" carryin $end
$var reg 1 8" sum $end
$var reg 1 9" carryout $end
$var reg 1 :" ssum0 $end
$var reg 1 ;" scarry0 $end
$var reg 1 <" scarry1 $end
$scope module halfadder0 $end
$var reg 1 =" operand0 $end
$var reg 1 >" operand1 $end
$var reg 1 ?" sum $end
$var reg 1 @" carry $end
$upscope $end
$scope module halfadder1 $end
$var reg 1 A" operand0 $end
$var reg 1 B" operand1 $end
$var reg 1 C" sum $end
$var reg 1 D" carry $end
$upscope $end
$upscope $end
$upscope $end
$scope module genfulladder(5) $end
$scope module fainstance $end
$var reg 1 E" operand0 $end
$var reg 1 F" operand1 $end
$var reg 1 G" carryin $end
$var reg 1 H" sum $end
$var reg 1 I" carryout $end
$var reg 1 J" ssum0 $end
$var reg 1 K" scarry0 $end
$var reg 1 L" scarry1 $end
$scope module halfadder0 $end
$var reg 1 M" operand0 $end
$var reg 1 N" operand1 $end
$var reg 1 O" sum $end
$var reg 1 P" carry $end
$upscope $end
$scope module halfadder1 $end
$var reg 1 Q" operand0 $end
$var reg 1 R" operand1 $end
$var reg 1 S" sum $end
$var reg 1 T" carry $end
$upscope $end
$upscope $end
$upscope $end
$scope module genfulladder(6) $end
$scope module fainstance $end
$var reg 1 U" operand0 $end
$var reg 1 V" operand1 $end
$var reg 1 W" carryin $end
$var reg 1 X" sum $end
$var reg 1 Y" carryout $end
$var reg 1 Z" ssum0 $end
$var reg 1 [" scarry0 $end
$var reg 1 \" scarry1 $end
$scope module halfadder0 $end
$var reg 1 ]" operand0 $end
$var reg 1 ^" operand1 $end
$var reg 1 _" sum $end
$var reg 1 `" carry $end
$upscope $end
$scope module halfadder1 $end
$var reg 1 a" operand0 $end
$var reg 1 b" operand1 $end
$var reg 1 c" sum $end
$var reg 1 d" carry $end
$upscope $end
$upscope $end
$upscope $end
$scope module genfulladder(7) $end
$scope module fainstance $end
$var reg 1 e" operand0 $end
$var reg 1 f" operand1 $end
$var reg 1 g" carryin $end
$var reg 1 h" sum $end
$var reg 1 i" carryout $end
$var reg 1 j" ssum0 $end
$var reg 1 k" scarry0 $end
$var reg 1 l" scarry1 $end
$scope module halfadder0 $end
$var reg 1 m" operand0 $end
$var reg 1 n" operand1 $end
$var reg 1 o" sum $end
$var reg 1 p" carry $end
$upscope $end
$scope module halfadder1 $end
$var reg 1 q" operand0 $end
$var reg 1 r" operand1 $end
$var reg 1 s" sum $end
$var reg 1 t" carry $end
$upscope $end
$upscope $end
$upscope $end
$scope module genfulladder(8) $end
$scope module fainstance $end
$var reg 1 u" operand0 $end
$var reg 1 v" operand1 $end
$var reg 1 w" carryin $end
$var reg 1 x" sum $end
$var reg 1 y" carryout $end
$var reg 1 z" ssum0 $end
$var reg 1 {" scarry0 $end
$var reg 1 |" scarry1 $end
$scope module halfadder0 $end
$var reg 1 }" operand0 $end
$var reg 1 !# operand1 $end
$var reg 1 "# sum $end
$var reg 1 ## carry $end
$upscope $end
$scope module halfadder1 $end
$var reg 1 $# operand0 $end
$var reg 1 %# operand1 $end
$var reg 1 &# sum $end
$var reg 1 '# carry $end
$upscope $end
$upscope $end
$upscope $end
$scope module genfulladder(9) $end
$scope module fainstance $end
$var reg 1 (# operand0 $end
$var reg 1 )# operand1 $end
$var reg 1 *# carryin $end
$var reg 1 +# sum $end
$var reg 1 ,# carryout $end
$var reg 1 -# ssum0 $end
$var reg 1 .# scarry0 $end
$var reg 1 /# scarry1 $end
$scope module halfadder0 $end
$var reg 1 0# operand0 $end
$var reg 1 1# operand1 $end
$var reg 1 2# sum $end
$var reg 1 3# carry $end
$upscope $end
$scope module halfadder1 $end
$var reg 1 4# operand0 $end
$var reg 1 5# operand1 $end
$var reg 1 6# sum $end
$var reg 1 7# carry $end
$upscope $end
$upscope $end
$upscope $end
$scope module genfulladder(10) $end
$scope module fainstance $end
$var reg 1 8# operand0 $end
$var reg 1 9# operand1 $end
$var reg 1 :# carryin $end
$var reg 1 ;# sum $end
$var reg 1 <# carryout $end
$var reg 1 =# ssum0 $end
$var reg 1 ># scarry0 $end
$var reg 1 ?# scarry1 $end
$scope module halfadder0 $end
$var reg 1 @# operand0 $end
$var reg 1 A# operand1 $end
$var reg 1 B# sum $end
$var reg 1 C# carry $end
$upscope $end
$scope module halfadder1 $end
$var reg 1 D# operand0 $end
$var reg 1 E# operand1 $end
$var reg 1 F# sum $end
$var reg 1 G# carry $end
$upscope $end
$upscope $end
$upscope $end
$scope module genfulladder(11) $end
$scope module fainstance $end
$var reg 1 H# operand0 $end
$var reg 1 I# operand1 $end
$var reg 1 J# carryin $end
$var reg 1 K# sum $end
$var reg 1 L# carryout $end
$var reg 1 M# ssum0 $end
$var reg 1 N# scarry0 $end
$var reg 1 O# scarry1 $end
$scope module halfadder0 $end
$var reg 1 P# operand0 $end
$var reg 1 Q# operand1 $end
$var reg 1 R# sum $end
$var reg 1 S# carry $end
$upscope $end
$scope module halfadder1 $end
$var reg 1 T# operand0 $end
$var reg 1 U# operand1 $end
$var reg 1 V# sum $end
$var reg 1 W# carry $end
$upscope $end
$upscope $end
$upscope $end
$scope module genfulladder(12) $end
$scope module fainstance $end
$var reg 1 X# operand0 $end
$var reg 1 Y# operand1 $end
$var reg 1 Z# carryin $end
$var reg 1 [# sum $end
$var reg 1 \# carryout $end
$var reg 1 ]# ssum0 $end
$var reg 1 ^# scarry0 $end
$var reg 1 _# scarry1 $end
$scope module halfadder0 $end
$var reg 1 `# operand0 $end
$var reg 1 a# operand1 $end
$var reg 1 b# sum $end
$var reg 1 c# carry $end
$upscope $end
$scope module halfadder1 $end
$var reg 1 d# operand0 $end
$var reg 1 e# operand1 $end
$var reg 1 f# sum $end
$var reg 1 g# carry $end
$upscope $end
$upscope $end
$upscope $end
$scope module genfulladder(13) $end
$scope module fainstance $end
$var reg 1 h# operand0 $end
$var reg 1 i# operand1 $end
$var reg 1 j# carryin $end
$var reg 1 k# sum $end
$var reg 1 l# carryout $end
$var reg 1 m# ssum0 $end
$var reg 1 n# scarry0 $end
$var reg 1 o# scarry1 $end
$scope module halfadder0 $end
$var reg 1 p# operand0 $end
$var reg 1 q# operand1 $end
$var reg 1 r# sum $end
$var reg 1 s# carry $end
$upscope $end
$scope module halfadder1 $end
$var reg 1 t# operand0 $end
$var reg 1 u# operand1 $end
$var reg 1 v# sum $end
$var reg 1 w# carry $end
$upscope $end
$upscope $end
$upscope $end
$scope module genfulladder(14) $end
$scope module fainstance $end
$var reg 1 x# operand0 $end
$var reg 1 y# operand1 $end
$var reg 1 z# carryin $end
$var reg 1 {# sum $end
$var reg 1 |# carryout $end
$var reg 1 }# ssum0 $end
$var reg 1 !$ scarry0 $end
$var reg 1 "$ scarry1 $end
$scope module halfadder0 $end
$var reg 1 #$ operand0 $end
$var reg 1 $$ operand1 $end
$var reg 1 %$ sum $end
$var reg 1 &$ carry $end
$upscope $end
$scope module halfadder1 $end
$var reg 1 '$ operand0 $end
$var reg 1 ($ operand1 $end
$var reg 1 )$ sum $end
$var reg 1 *$ carry $end
$upscope $end
$upscope $end
$upscope $end
$scope module genfulladder(15) $end
$scope module fainstance $end
$var reg 1 +$ operand0 $end
$var reg 1 ,$ operand1 $end
$var reg 1 -$ carryin $end
$var reg 1 .$ sum $end
$var reg 1 /$ carryout $end
$var reg 1 0$ ssum0 $end
$var reg 1 1$ scarry0 $end
$var reg 1 2$ scarry1 $end
$scope module halfadder0 $end
$var reg 1 3$ operand0 $end
$var reg 1 4$ operand1 $end
$var reg 1 5$ sum $end
$var reg 1 6$ carry $end
$upscope $end
$scope module halfadder1 $end
$var reg 1 7$ operand0 $end
$var reg 1 8$ operand1 $end
$var reg 1 9$ sum $end
$var reg 1 :$ carry $end
$upscope $end
$upscope $end
$upscope $end
$upscope $end
$scope module fulladderbuf $end
$var reg 16 ;$ d[15:0] $end
$var reg 1 <$ rst $end
$var reg 1 =$ clk $end
$var reg 16 >$ q[15:0] $end
$var reg 16 ?$ reg16[15:0] $end
$upscope $end
$scope module shiftedbuf $end
$var reg 16 @$ d[15:0] $end
$var reg 1 A$ rst $end
$var reg 1 B$ clk $end
$var reg 16 C$ q[15:0] $end
$var reg 16 D$ reg16[15:0] $end
$upscope $end
$upscope $end
$enddefinitions $end
#0
b00000000 !
b00000000 "
0#
0$
b0000000000000000 %
U&
b00000000 '
b00000000 (
0)
0*
b0000000000000000 +
U,
U-
U.
b0000000000000000 /
00
11
b0000000000000000 2
b0000000000000000 3
b0000000000000000 4
U5
b0000000000000000 6
b0000000000000000 7
b00000000 8
U9
U:
0;
b0000000000000000 <
b0000000000000000 =
b00000000 >
U?
U@
0A
0B
b00000000 C
b0000000000000000 D
b0000000000000000 E
0F
b0000000000000000 G
b0000000000000000 H
b0000000000000000 I
UJ
b0000000000000000 K
b0000000000000000 L
b0000000000000000 M
0N
b0000000000000000 O
0P
b00000000000000000 Q
0R
0S
0T
0U
0V
0W
0X
0Y
0Z
0[
0\
0]
0^
0_
0`
0a
0b
0c
0d
0e
0f
0g
0h
0i
0j
0k
0l
0m
0n
0o
0p
0q
0r
0s
0t
0u
0v
0w
0x
0y
0z
0{
0|
0}
0!"
0""
0#"
0$"
0%"
0&"
0'"
0("
0)"
0*"
0+"
0,"
0-"
0."
0/"
00"
01"
02"
03"
04"
05"
06"
07"
08"
09"
0:"
0;"
0<"
0="
0>"
0?"
0@"
0A"
0B"
0C"
0D"
0E"
0F"
0G"
0H"
0I"
0J"
0K"
0L"
0M"
0N"
0O"
0P"
0Q"
0R"
0S"
0T"
0U"
0V"
0W"
0X"
0Y"
0Z"
0["
0\"
0]"
0^"
0_"
0`"
0a"
0b"
0c"
0d"
0e"
0f"
0g"
0h"
0i"
0j"
0k"
0l"
0m"
0n"
0o"
0p"
0q"
0r"
0s"
0t"
0u"
0v"
0w"
0x"
0y"
0z"
0{"
0|"
0}"
0!#
0"#
0##
0$#
0%#
0&#
0'#
0(#
0)#
0*#
0+#
0,#
0-#
0.#
0/#
00#
01#
02#
03#
04#
05#
06#
07#
08#
09#
0:#
0;#
0<#
0=#
0>#
0?#
0@#
0A#
0B#
0C#
0D#
0E#
0F#
0G#
0H#
0I#
0J#
0K#
0L#
0M#
0N#
0O#
0P#
0Q#
0R#
0S#
0T#
0U#
0V#
0W#
0X#
0Y#
0Z#
0[#
0\#
0]#
0^#
0_#
0`#
0a#
0b#
0c#
0d#
0e#
0f#
0g#
0h#
0i#
0j#
0k#
0l#
0m#
0n#
0o#
0p#
0q#
0r#
0s#
0t#
0u#
0v#
0w#
0x#
0y#
0z#
0{#
0|#
0}#
0!$
0"$
0#$
0$$
0%$
0&$
0'$
0($
0)$
0*$
0+$
0,$
0-$
0.$
0/$
00$
01$
02$
03$
04$
05$
06$
07$
08$
09$
0:$
b0000000000000000 ;$
1<$
0=$
b0000000000000000 >$
b0000000000000000 ?$
b0000000000000000 @$
1A$
0B$
b0000000000000000 C$
b0000000000000000 D$
#5000000
b00001011 !
b00000111 "
1#
1$
0&
b00001011 '
b00000111 (
1)
1*
0,
1-
0.
05
b00001011 8
19
0:
1;
b00000111 >
1?
0@
1A
0J
1=$
1B$
#10000000
0$
0*
0;
0A
0=$
0B$
#15000000
0#
1$
0)
1*
0-
b0000000000001011 /
10
b0000000000001011 2
09
1;
b0000000000001011 <
b0000000000001011 =
0?
1A
1B
b00000111 C
b0000000000001011 E
1F
b0000000000001011 G
1=$
b0000000000001011 @$
1B$
#20000000
0$
0*
0;
0A
0=$
0B$
#25000000
1$
1*
1.
01
1:
1;
1@
1A
0<$
1=$
0A$
1B$
#30000000
0$
0*
0;
0A
0=$
0B$
#35000000
1$
b0000000000001011 %
1*
b0000000000001011 +
b0000000000010110 /
b0000000000010110 2
b0000000000001011 3
b0000000000001011 4
15
b0000000000001011 6
1;
b0000000000010110 <
b0000000000010110 =
1A
b00000011 C
b0000000000010110 E
b0000000000010110 G
b0000000000001011 I
1J
b0000000000001011 K
b0000000000001011 M
b0000000000001011 O
1S
1U
1W
1[
1\
1^
1`
1c
1e
1g
1k
1l
1n
1p
1&"
1("
1*"
1."
1/"
11"
13"
b0000000000001011 ;$
1=$
b0000000000010110 @$
1B$
b0000000000001011 C$
b0000000000001011 D$
#40000000
0$
0*
0;
0A
0=$
0B$
#45000000
1$
b0000000000100001 %
1*
b0000000000100001 +
b0000000000101100 /
b0000000000101100 2
b0000000000010110 3
b0000000000100001 4
b0000000000100001 6
b0000000000001011 7
1;
b0000000000101100 <
b0000000000101100 =
1A
b00000001 C
b0000000000101100 E
b0000000000101100 G
b0000000000100001 I
b0000000000100001 K
b0000000000001011 L
b0000000000010110 M
b0000000000100001 O
b00000000000111100 Q
1R
0S
1Z
0[
1b
0e
1f
0g
1h
1j
0l
1m
0n
0p
1s
1t
0u
1v
1w
1y
1{
1|
1!"
1""
0#"
1$"
1%"
0&"
1'"
0("
1)"
1,"
1-"
0."
12"
03"
14"
16"
17"
08"
19"
1:"
1<"
1>"
1?"
1A"
1B"
0C"
1D"
1G"
1H"
1R"
1S"
b0000000000100001 ;$
1=$
b0000000000001011 >$
b0000000000001011 ?$
b0000000000101100 @$
1B$
b0000000000010110 C$
b0000000000010110 D$
#50000000
0$
0*
0;
0A
0=$
0B$
#55000000
1$
b0000000001001101 %
1*
b0000000001001101 +
b0000000001011000 /
00
b0000000000000000 2
b0000000000101100 3
b0000000001001101 4
b0000000001001101 6
b0000000000100001 7
1;
b0000000001011000 <
b0000000001011000 =
1A
0B
b00000000 C
b0000000001011000 E
0F
b0000000000000000 G
b0000000001001101 I
b0000000001001101 K
b0000000000100001 L
b0000000000101100 M
b0000000001001101 O
b00000000001000000 Q
0b
0c
0f
0h
0j
0k
0m
0t
1u
0v
0y
0""
1#"
0$"
0%"
1&"
0'"
1("
0)"
0,"
0-"
1."
02"
13"
04"
06"
07"
08"
09"
0:"
0<"
0>"
0?"
0A"
0B"
0C"
0D"
1E"
1F"
0G"
0H"
1I"
1K"
1M"
1N"
1P"
0R"
0S"
1W"
1X"
1b"
1c"
b0000000001001101 ;$
1=$
b0000000000100001 >$
b0000000000100001 ?$
b0000000000000000 @$
1B$
b0000000000101100 C$
b0000000000101100 D$
#60000000
0$
0*
0;
0A
0=$
0B$
#65000000
1$
b0000000001001101 %
1*
b0000000001001101 +
b0000000010110000 /
b0000000000000000 3
b0000000001001101 4
b0000000001001101 6
b0000000001001101 7
1;
b0000000010110000 <
b0000000010110000 =
1A
b0000000010110000 E
b0000000001001101 I
b0000000001001101 K
b0000000001001101 L
b0000000000000000 M
b0000000001001101 O
b00000000000000000 Q
1r
0s
1z
0{
1%"
0&"
1-"
0."
0E"
0F"
0I"
0K"
0M"
0N"
0P"
1U"
0W"
1X"
0Y"
1Z"
0\"
1]"
1_"
1a"
0b"
1c"
0d"
0g"
0h"
0r"
0s"
b0000000001001101 ;$
1=$
b0000000001001101 >$
b0000000001001101 ?$
1B$
b0000000000000000 C$
b0000000000000000 D$
#70000000
0$
0*
0;
0A
0=$
0B$
#75000000
1$
1*
b0000000101100000 /
1;
b0000000101100000 <
b0000000101100000 =
1A
b0000000101100000 E
1=$
1B$
#80000000
0$
0*
0;
0A
0=$
0B$
#85000000
1$
1*
b0000001011000000 /
1;
b0000001011000000 <
b0000001011000000 =
1A
b0000001011000000 E
1=$
1B$
#90000000
0$
0*
0;
0A
0=$
0B$
#95000000
1$
1*
b0000010110000000 /
1;
b0000010110000000 <
b0000010110000000 =
1A
b0000010110000000 E
1=$
1B$
#100000000
0$
0*
0;
0A
0=$
0B$
#105000000
1$
1&
1*
1,
b0000101100000000 /
1;
b0000101100000000 <
b0000101100000000 =
1A
b0000101100000000 E
1=$
1B$
#110000000
0$
0*
0;
0A
0=$
0B$
#115000000
b01011010 !
b10100101 "
1#
1$
0&
b01011010 '
b10100101 (
1)
1*
0,
1-
0.
b0001011000000000 /
11
05
b0000000000000000 6
b01011010 8
19
0:
1;
b0001011000000000 <
b0001011000000000 =
b10100101 >
1?
0@
1A
b0001011000000000 E
0J
b0000000000000000 K
b0000000000000000 ;$
1<$
1=$
1A$
1B$
#120000000
0$
0*
0;
0A
0=$
0B$
#125000000
0#
1$
b0000000000000000 %
0)
1*
b0000000000000000 +
0-
b0000000001011010 /
10
b0000000001011010 2
b0000000000000000 4
b0000000000000000 7
09
1;
b0000000001011010 <
b0000000001011010 =
0?
1A
1B
b10100101 C
b0000000001011010 E
1F
b0000000001011010 G
b0000000000000000 I
b0000000000000000 L
b0000000000000000 O
0R
0U
0W
0Z
0\
0^
0`
0r
0u
0w
0z
0|
0!"
0#"
0%"
0("
0*"
0-"
0/"
01"
03"
0U"
0X"
0Z"
0]"
0_"
0a"
0c"
1=$
b0000000000000000 >$
b0000000000000000 ?$
b0000000001011010 @$
1B$
#130000000
0$
0*
0;
0A
0=$
0B$
#135000000
1$
1*
1.
01
1:
1;
1@
1A
0<$
1=$
0A$
1B$
#140000000
0$
0*
0;
0A
0=$
0B$
#145000000
1$
b0000000001011010 %
1*
b0000000001011010 +
b0000000010110100 /
00
b0000000000000000 2
b0000000001011010 3
b0000000001011010 4
15
b0000000001011010 6
1;
b0000000010110100 <
b0000000010110100 =
1A
0B
b01010010 C
b0000000010110100 E
0F
b0000000000000000 G
b0000000001011010 I
1J
b0000000001011010 K
b0000000001011010 M
b0000000001011010 O
1c
1e
1g
1k
1l
1n
1p
1&"
1("
1*"
1."
1/"
11"
13"
16"
18"
1:"
1>"
1?"
1A"
1C"
1V"
1X"
1Z"
1^"
1_"
1a"
1c"
b0000000001011010 ;$
1=$
b0000000000000000 @$
1B$
b0000000001011010 C$
b0000000001011010 D$
#150000000
0$
0*
0;
0A
0=$
0B$
#155000000
1$
1*
b0000000101101000 /
10
b0000000101101000 2
b0000000000000000 3
b0000000001011010 7
1;
b0000000101101000 <
b0000000101101000 =
1A
1B
b00101001 C
b0000000101101000 E
1F
b0000000101101000 G
b0000000001011010 L
b0000000000000000 M
1b
0c
1j
0k
1%"
0&"
1-"
0."
15"
06"
1="
0>"
1U"
0V"
1]"
0^"
1=$
b0000000001011010 >$
b0000000001011010 ?$
b0000000101101000 @$
1B$
b0000000000000000 C$
b0000000000000000 D$
#160000000
0$
0*
0;
0A
0=$
0B$
#165000000
1$
b0000000111000010 %
1*
b0000000111000010 +
b0000001011010000 /
00
b0000000000000000 2
b0000000101101000 3
b0000000111000010 4
b0000000111000010 6
1;
b0000001011010000 <
b0000001011010000 =
1A
0B
b00010100 C
b0000001011010000 E
0F
b0000000000000000 G
b0000000111000010 I
b0000000111000010 K
b0000000101101000 M
b0000000111000010 O
b00000000011110000 Q
1&"
0("
1)"
0*"
1+"
1."
0/"
10"
01"
03"
17"
08"
19"
1<"
1B"
0C"
1D"
1F"
1G"
0H"
1I"
1J"
1L"
1N"
1O"
1Q"
1R"
0S"
1T"
1V"
1W"
1X"
1Y"
0Z"
1["
1^"
0_"
1`"
0a"
1b"
1c"
1g"
1h"
1r"
1s"
1v"
1x"
1z"
1!#
1"#
1$#
1&#
b0000000111000010 ;$
1=$
b0000000000000000 @$
1B$
b0000000101101000 C$
b0000000101101000 D$
#170000000
0$
0*
0;
0A
0=$
0B$
#175000000
1$
b0000000111000010 %
1*
b0000000111000010 +
b0000010110100000 /
b0000000000000000 3
b0000000111000010 4
b0000000111000010 6
b0000000111000010 7
1;
b0000010110100000 <
b0000010110100000 =
1A
b00001010 C
b0000010110100000 E
b0000000111000010 I
b0000000111000010 K
b0000000111000010 L
b0000000000000000 M
b0000000111000010 O
b00000000000000000 Q
0%"
0&"
0)"
0+"
0-"
0."
00"
05"
07"
08"
09"
0:"
0<"
0="
0?"
0A"
0B"
0C"
0D"
0F"
0G"
0H"
0I"
0J"
0L"
0N"
0O"
0Q"
0R"
0S"
0T"
0V"
0W"
1X"
0Y"
1Z"
0["
0\"
0^"
1_"
0`"
1a"
0b"
1c"
0d"
1e"
0g"
1h"
0i"
1j"
0l"
1m"
1o"
1q"
0r"
1s"
0t"
1u"
0v"
0w"
1x"
0y"
0|"
1}"
0!#
0%#
1&#
0'#
0*#
0+#
05#
06#
b0000000111000010 ;$
1=$
b0000000111000010 >$
b0000000111000010 ?$
1B$
b0000000000000000 C$
b0000000000000000 D$
#180000000
0$
0*
0;
0A
0=$
0B$
#185000000
1$
1*
b0000101101000000 /
10
b0000101101000000 2
1;
b0000101101000000 <
b0000101101000000 =
1A
1B
b00000101 C
b0000101101000000 E
1F
b0000101101000000 G
1=$
b0000101101000000 @$
1B$
#190000000
0$
0*
0;
0A
0=$
0B$
#195000000
1$
b0000110100000010 %
1*
b0000110100000010 +
b0001011010000000 /
00
b0000000000000000 2
b0000101101000000 3
b0000110100000010 4
b0000110100000010 6
1;
b0001011010000000 <
b0001011010000000 =
1A
0B
b00000010 C
b0001011010000000 E
0F
b0000000000000000 G
b0000110100000010 I
b0000110100000010 K
b0000101101000000 M
b0000110100000010 O
b00000011110000000 Q
1V"
0X"
1Y"
0Z"
1["
1^"
0_"
1`"
0a"
0c"
1g"
0h"
1i"
1l"
1r"
0s"
1t"
1v"
1w"
1x"
1y"
0z"
1{"
1!#
0"#
1##
0$#
1%#
1&#
1)#
1*#
0+#
1,#
1-#
1/#
11#
12#
14#
15#
06#
17#
1:#
1;#
1E#
1F#
1I#
1K#
1M#
1Q#
1R#
1T#
1V#
b0000110100000010 ;$
1=$
b0000000000000000 @$
1B$
b0000101101000000 C$
b0000101101000000 D$
#200000000
0$
0*
0;
0A
0=$
0B$
#205000000
1$
b0000110100000010 %
1*
b0000110100000010 +
b0010110100000000 /
10
b0010110100000000 2
b0000000000000000 3
b0000110100000010 4
b0000110100000010 6
b0000110100000010 7
1;
b0010110100000000 <
b0010110100000000 =
1A
1B
b00000001 C
b0010110100000000 E
1F
b0010110100000000 G
b0000110100000010 I
b0000110100000010 K
b0000110100000010 L
b0000000000000000 M
b0000110100000010 O
b00000000000000000 Q
0U"
0V"
0Y"
0["
0]"
0^"
0`"
0e"
0g"
0h"
0i"
0j"
0l"
0m"
0o"
0q"
0r"
0s"
0t"
0v"
0w"
1x"
0y"
1z"
0{"
0|"
0!#
1"#
0##
1$#
0%#
1&#
0'#
0)#
0*#
0+#
0,#
0-#
0/#
01#
02#
04#
05#
06#
07#
18#
0:#
1;#
0<#
1=#
0?#
1@#
1B#
1D#
0E#
1F#
0G#
1H#
0I#
0J#
1K#
0L#
0O#
1P#
0Q#
0U#
1V#
0W#
0Z#
0[#
0e#
0f#
b0000110100000010 ;$
1=$
b0000110100000010 >$
b0000110100000010 ?$
b0010110100000000 @$
1B$
b0000000000000000 C$
b0000000000000000 D$
#210000000
0$
0*
0;
0A
0=$
0B$
#215000000
1$
b0011101000000010 %
1&
1*
b0011101000000010 +
1,
b0101101000000000 /
00
b0000000000000000 2
b0010110100000000 3
b0011101000000010 4
b0011101000000010 6
1;
b0101101000000000 <
b0101101000000000 =
1A
0B
b00000000 C
b0101101000000000 E
0F
b0000000000000000 G
b0011101000000010 I
b0011101000000010 K
b0010110100000000 M
b0011101000000010 O
b00001101000000000 Q
1v"
0x"
1y"
0z"
1{"
1!#
0"#
1##
0$#
0&#
1*#
1+#
15#
16#
19#
0;#
1<#
0=#
1>#
1A#
0B#
1C#
0D#
0F#
1I#
1J#
1K#
1L#
0M#
1N#
1Q#
0R#
1S#
0T#
1U#
1V#
1Z#
1[#
1e#
1f#
1i#
1k#
1m#
1q#
1r#
1t#
1v#
b0011101000000010 ;$
1=$
b0000000000000000 @$
1B$
b0010110100000000 C$
b0010110100000000 D$
#220000000
0$
0*
0;
0A
0=$
0B$
#225000000
b00010000 !
b00010000 "
1#
1$
b0011101000000010 %
0&
b00010000 '
b00010000 (
1)
1*
b0011101000000010 +
0,
1-
0.
b1011010000000000 /
11
b0000000000000000 3
b0011101000000010 4
05
b0000000000000000 6
b0011101000000010 7
b00010000 8
19
0:
1;
b1011010000000000 <
b1011010000000000 =
b00010000 >
1?
0@
1A
b1011010000000000 E
b0011101000000010 I
0J
b0000000000000000 K
b0011101000000010 L
b0000000000000000 M
b0011101000000010 O
b00000000000000000 Q
0u"
0v"
0y"
0{"
0}"
0!#
0##
1(#
0*#
1+#
0,#
1-#
0/#
10#
12#
14#
05#
16#
07#
08#
09#
0:#
0;#
0<#
0>#
0@#
0A#
0C#
0E#
0F#
0I#
0J#
1K#
0L#
1M#
0N#
0O#
0Q#
1R#
0S#
1T#
0U#
1V#
0W#
1X#
0Z#
1[#
0\#
1]#
0_#
1`#
1b#
1d#
0e#
1f#
0g#
1h#
0i#
0j#
1k#
0l#
0o#
1p#
0q#
0u#
1v#
0w#
0z#
0{#
0($
0)$
b0000000000000000 ;$
1<$
1=$
b0011101000000010 >$
b0011101000000010 ?$
1A$
1B$
b0000000000000000 C$
b0000000000000000 D$
#230000000
0$
0*
0;
0A
0=$
0B$
